EESchema Schematic File Version 4
LIBS:feedthroughstar-cache
EELAYER 29 0
EELAYER END
$Descr A4 11693 8268
encoding utf-8
Sheet 2 4
Title ""
Date ""
Rev ""
Comp ""
Comment1 ""
Comment2 ""
Comment3 ""
Comment4 ""
$EndDescr
Wire Wire Line
	5600 2400 6000 2400
$Comp
L Connector_Generic:Conn_02x25_Odd_Even J?
U 1 1 5CFC7A57
P 6200 3600
AR Path="/5CFC7A57" Ref="J?"  Part="1" 
AR Path="/5CFADD14/5CFC7A57" Ref="J?"  Part="1" 
AR Path="/5CFCBF9C/5CFC7A57" Ref="J?"  Part="1" 
AR Path="/5CFCBFEE/5CFC7A57" Ref="J?"  Part="1" 
AR Path="/5CFCC065/5CFC7A57" Ref="J102"  Part="1" 
AR Path="/5CFCC1D3/5CFC7A57" Ref="J?"  Part="1" 
AR Path="/5CFCC2A6/5CFC7A57" Ref="J202"  Part="1" 
AR Path="/5CFCC32F/5CFC7A57" Ref="J302"  Part="1" 
AR Path="/5CFCC3A2/5CFC7A57" Ref="J?"  Part="1" 
AR Path="/5CFCC3A4/5CFC7A57" Ref="J?"  Part="1" 
F 0 "J102" H 6250 5017 50  0000 C CNN
F 1 "Conn_02x25_Odd_Even" H 6250 4926 50  0000 C CNN
F 2 "Connector_PinHeader_1.27mm:PinHeader_2x25_P1.27mm_Vertical_SMD" H 6200 3600 50  0001 C CNN
F 3 "~" H 6200 3600 50  0001 C CNN
	1    6200 3600
	1    0    0    -1  
$EndComp
$Comp
L Connector_Generic:Conn_02x25_Odd_Even J?
U 1 1 5CFC7A51
P 5300 3600
AR Path="/5CFC7A51" Ref="J?"  Part="1" 
AR Path="/5CFADD14/5CFC7A51" Ref="J?"  Part="1" 
AR Path="/5CFCBF9C/5CFC7A51" Ref="J?"  Part="1" 
AR Path="/5CFCBFEE/5CFC7A51" Ref="J?"  Part="1" 
AR Path="/5CFCC065/5CFC7A51" Ref="J101"  Part="1" 
AR Path="/5CFCC1D3/5CFC7A51" Ref="J?"  Part="1" 
AR Path="/5CFCC2A6/5CFC7A51" Ref="J201"  Part="1" 
AR Path="/5CFCC32F/5CFC7A51" Ref="J301"  Part="1" 
AR Path="/5CFCC3A2/5CFC7A51" Ref="J?"  Part="1" 
AR Path="/5CFCC3A4/5CFC7A51" Ref="J?"  Part="1" 
F 0 "J101" H 5350 5017 50  0000 C CNN
F 1 "Conn_02x25_Odd_Even" H 5350 4926 50  0000 C CNN
F 2 "Connector_PinHeader_1.27mm:PinHeader_2x25_P1.27mm_Vertical_SMD" H 5300 3600 50  0001 C CNN
F 3 "~" H 5300 3600 50  0001 C CNN
	1    5300 3600
	1    0    0    -1  
$EndComp
Wire Wire Line
	5600 2500 6000 2500
Wire Wire Line
	5600 2600 6000 2600
Wire Wire Line
	5600 2700 6000 2700
Wire Wire Line
	5600 2800 6000 2800
Wire Wire Line
	5600 2900 6000 2900
Wire Wire Line
	5600 3000 6000 3000
Wire Wire Line
	5600 3100 6000 3100
Wire Wire Line
	5600 3200 6000 3200
Wire Wire Line
	5600 3400 6000 3400
Wire Wire Line
	5600 3500 6000 3500
Wire Wire Line
	5600 3600 6000 3600
Wire Wire Line
	5600 3700 6000 3700
Wire Wire Line
	5600 3900 6000 3900
Wire Wire Line
	5600 4000 6000 4000
Wire Wire Line
	5600 4100 6000 4100
Wire Wire Line
	5600 4200 6000 4200
Wire Wire Line
	5600 4300 6000 4300
Wire Wire Line
	5600 4400 6000 4400
Wire Wire Line
	5600 4500 6000 4500
Wire Wire Line
	5600 4600 6000 4600
Wire Wire Line
	5600 4700 6000 4700
Wire Wire Line
	5600 4800 6000 4800
Wire Wire Line
	5100 2400 5100 2350
Wire Wire Line
	5100 2500 5100 2450
Wire Wire Line
	5100 2600 5100 2550
Wire Wire Line
	5100 2700 5100 2650
Wire Wire Line
	5100 2800 5100 2750
Wire Wire Line
	5100 2900 5100 2850
Wire Wire Line
	5100 3000 5100 2950
Wire Wire Line
	5100 3100 5100 3050
Wire Wire Line
	5100 3200 5100 3150
Wire Wire Line
	5100 3300 5100 3250
Wire Wire Line
	5100 3400 5100 3350
Wire Wire Line
	5100 3500 5100 3450
Wire Wire Line
	5100 3600 5100 3550
Wire Wire Line
	5100 3700 5100 3650
Wire Wire Line
	5100 3800 5100 3750
Wire Wire Line
	5100 3900 5100 3850
Wire Wire Line
	5100 4000 5100 3950
Wire Wire Line
	5100 4100 5100 4050
Wire Wire Line
	5100 4200 5100 4150
Wire Wire Line
	5100 4300 5100 4250
Wire Wire Line
	5100 4400 5100 4350
Wire Wire Line
	5100 4500 5100 4450
Wire Wire Line
	5100 4600 5100 4550
Wire Wire Line
	5100 4700 5100 4650
Wire Wire Line
	5100 4800 5100 4750
Wire Wire Line
	5100 2350 6500 2350
Wire Wire Line
	5100 2450 6500 2450
Wire Wire Line
	5100 2550 6500 2550
Wire Wire Line
	5100 2650 6500 2650
Wire Wire Line
	5100 2750 6500 2750
Wire Wire Line
	5100 2850 6500 2850
Wire Wire Line
	5100 2950 6500 2950
Wire Wire Line
	5100 3050 6500 3050
Wire Wire Line
	5100 3150 6500 3150
Wire Wire Line
	5100 3250 6500 3250
Wire Wire Line
	5100 3350 6500 3350
Wire Wire Line
	5100 3450 6500 3450
Wire Wire Line
	5100 3550 6500 3550
Wire Wire Line
	5100 3650 6500 3650
Wire Wire Line
	5100 3750 6500 3750
Wire Wire Line
	5100 3850 6500 3850
Wire Wire Line
	5100 3950 6500 3950
Wire Wire Line
	5100 4050 6500 4050
Wire Wire Line
	5100 4150 6500 4150
Wire Wire Line
	5100 4250 6500 4250
Wire Wire Line
	5100 4350 6500 4350
Wire Wire Line
	5100 4450 6500 4450
Wire Wire Line
	5100 4550 6500 4550
Wire Wire Line
	5100 4650 6500 4650
Wire Wire Line
	5100 4750 6500 4750
Wire Wire Line
	6500 2350 6500 2400
Wire Wire Line
	6500 2450 6500 2500
Wire Wire Line
	6500 2550 6500 2600
Wire Wire Line
	6500 2650 6500 2700
Wire Wire Line
	6500 2750 6500 2800
Wire Wire Line
	6500 2850 6500 2900
Wire Wire Line
	6500 2950 6500 3000
Wire Wire Line
	6500 3050 6500 3100
Wire Wire Line
	6500 3150 6500 3200
Wire Wire Line
	6500 3250 6500 3300
Wire Wire Line
	6500 3350 6500 3400
Wire Wire Line
	6500 3450 6500 3500
Wire Wire Line
	6500 3550 6500 3600
Wire Wire Line
	6500 3650 6500 3700
Wire Wire Line
	6500 3750 6500 3800
Wire Wire Line
	6500 3850 6500 3900
Wire Wire Line
	6500 3950 6500 4000
Wire Wire Line
	6500 4050 6500 4100
Wire Wire Line
	6500 4150 6500 4200
Wire Wire Line
	6500 4250 6500 4300
Wire Wire Line
	6500 4350 6500 4400
Wire Wire Line
	6500 4450 6500 4500
Wire Wire Line
	6500 4550 6500 4600
Wire Wire Line
	6500 4650 6500 4700
Wire Wire Line
	6500 4750 6500 4800
Wire Wire Line
	5600 3300 6000 3300
Wire Wire Line
	5600 3800 6000 3800
$EndSCHEMATC
