EESchema Schematic File Version 4
LIBS:feedthroughstar-cache
EELAYER 29 0
EELAYER END
$Descr A4 11693 8268
encoding utf-8
Sheet 2 4
Title ""
Date ""
Rev ""
Comp ""
Comment1 ""
Comment2 ""
Comment3 ""
Comment4 ""
$EndDescr
$Comp
L Connector_Generic:Conn_02x25_Odd_Even J?
U 1 1 5CFF865C
P 6200 3600
AR Path="/5CFF865C" Ref="J?"  Part="1" 
AR Path="/5CFADD14/5CFF865C" Ref="J?"  Part="1" 
AR Path="/5CFCBF9C/5CFF865C" Ref="J?"  Part="1" 
AR Path="/5CFCBFEE/5CFF865C" Ref="J?"  Part="1" 
AR Path="/5CFCC065/5CFF865C" Ref="J2"  Part="1" 
AR Path="/5CFCC1D3/5CFF865C" Ref="J?"  Part="1" 
AR Path="/5CFCC2A6/5CFF865C" Ref="J4"  Part="1" 
AR Path="/5CFCC32F/5CFF865C" Ref="J6"  Part="1" 
F 0 "J2" H 6250 5017 50  0000 C CNN
F 1 "Conn_02x25_Odd_Even" H 6250 4926 50  0000 C CNN
F 2 "Connector_PinHeader_1.27mm:PinHeader_2x25_P1.27mm_Vertical_SMD" H 6200 3600 50  0001 C CNN
F 3 "~" H 6200 3600 50  0001 C CNN
	1    6200 3600
	1    0    0    -1  
$EndComp
$Comp
L Connector_Generic:Conn_02x25_Odd_Even J?
U 1 1 5CFF865B
P 5300 3600
AR Path="/5CFF865B" Ref="J?"  Part="1" 
AR Path="/5CFADD14/5CFF865B" Ref="J?"  Part="1" 
AR Path="/5CFCBF9C/5CFF865B" Ref="J?"  Part="1" 
AR Path="/5CFCBFEE/5CFF865B" Ref="J?"  Part="1" 
AR Path="/5CFCC065/5CFF865B" Ref="J1"  Part="1" 
AR Path="/5CFCC1D3/5CFF865B" Ref="J?"  Part="1" 
AR Path="/5CFCC2A6/5CFF865B" Ref="J3"  Part="1" 
AR Path="/5CFCC32F/5CFF865B" Ref="J5"  Part="1" 
F 0 "J1" H 5350 5017 50  0000 C CNN
F 1 "Conn_02x25_Odd_Even" H 5350 4926 50  0000 C CNN
F 2 "Connector_PinHeader_1.27mm:PinHeader_2x25_P1.27mm_Vertical_SMD" H 5300 3600 50  0001 C CNN
F 3 "~" H 5300 3600 50  0001 C CNN
	1    5300 3600
	1    0    0    -1  
$EndComp
Wire Wire Line
	5100 2400 5100 2375
Wire Wire Line
	5100 2375 6000 2375
Wire Wire Line
	6000 2375 6000 2400
Wire Wire Line
	5100 2500 5100 2475
Wire Wire Line
	5100 2600 5100 2575
Wire Wire Line
	5100 2700 5100 2675
Wire Wire Line
	5100 2800 5100 2775
Wire Wire Line
	5100 2900 5100 2875
Wire Wire Line
	5100 3000 5100 2975
Wire Wire Line
	5100 3100 5100 3075
Wire Wire Line
	5100 3200 5100 3175
Wire Wire Line
	5100 3300 5100 3275
Wire Wire Line
	5100 3400 5100 3375
Wire Wire Line
	5100 3500 5100 3475
Wire Wire Line
	5100 3600 5100 3575
Wire Wire Line
	5100 3700 5100 3675
Wire Wire Line
	5100 3800 5100 3775
Wire Wire Line
	5100 3900 5100 3875
Wire Wire Line
	5100 4000 5100 3975
Wire Wire Line
	5100 4100 5100 4075
Wire Wire Line
	5100 4200 5100 4175
Wire Wire Line
	5100 4300 5100 4275
Wire Wire Line
	5100 4400 5100 4375
Wire Wire Line
	5100 4500 5100 4475
Wire Wire Line
	5100 4600 5100 4575
Wire Wire Line
	5100 4700 5100 4675
Wire Wire Line
	5100 4800 5100 4775
Wire Wire Line
	5600 2400 5600 2425
Wire Wire Line
	5600 2500 5600 2525
Wire Wire Line
	5600 2600 5600 2625
Wire Wire Line
	5600 2700 5600 2725
Wire Wire Line
	5600 2800 5600 2825
Wire Wire Line
	5600 2900 5600 2925
Wire Wire Line
	5600 3000 5600 3025
Wire Wire Line
	5600 3100 5600 3125
Wire Wire Line
	5600 3200 5600 3225
Wire Wire Line
	5600 3300 5600 3325
Wire Wire Line
	5600 3400 5600 3425
Wire Wire Line
	5600 3500 5600 3525
Wire Wire Line
	5600 3600 5600 3625
Wire Wire Line
	5600 3700 5600 3725
Wire Wire Line
	5600 3800 5600 3825
Wire Wire Line
	5600 3900 5600 3925
Wire Wire Line
	5600 4000 5600 4025
Wire Wire Line
	5600 4100 5600 4125
Wire Wire Line
	5600 4200 5600 4225
Wire Wire Line
	5600 4300 5600 4325
Wire Wire Line
	5600 4400 5600 4425
Wire Wire Line
	5600 4500 5600 4525
Wire Wire Line
	5600 4600 5600 4625
Wire Wire Line
	5600 4700 5600 4725
Wire Wire Line
	5600 4800 5600 4825
Wire Wire Line
	6000 2500 6000 2475
Wire Wire Line
	6000 2600 6000 2575
Wire Wire Line
	6000 2700 6000 2675
Wire Wire Line
	6000 2800 6000 2775
Wire Wire Line
	6000 2900 6000 2875
Wire Wire Line
	6000 3000 6000 2975
Wire Wire Line
	6000 3100 6000 3075
Wire Wire Line
	6000 3200 6000 3175
Wire Wire Line
	6000 3300 6000 3275
Wire Wire Line
	6000 3400 6000 3375
Wire Wire Line
	6000 3500 6000 3475
Wire Wire Line
	6000 3600 6000 3575
Wire Wire Line
	6000 3700 6000 3675
Wire Wire Line
	6000 3800 6000 3775
Wire Wire Line
	6000 3900 6000 3875
Wire Wire Line
	6000 4000 6000 3975
Wire Wire Line
	6000 4100 6000 4075
Wire Wire Line
	6000 4200 6000 4175
Wire Wire Line
	6000 4300 6000 4275
Wire Wire Line
	6000 4400 6000 4375
Wire Wire Line
	6000 4500 6000 4475
Wire Wire Line
	6000 4600 6000 4575
Wire Wire Line
	6000 4700 6000 4675
Wire Wire Line
	6000 4800 6000 4775
Wire Wire Line
	6500 2400 6500 2425
Wire Wire Line
	6500 2500 6500 2525
Wire Wire Line
	6500 2600 6500 2625
Wire Wire Line
	6500 2700 6500 2725
Wire Wire Line
	6500 2800 6500 2825
Wire Wire Line
	6500 2900 6500 2925
Wire Wire Line
	6500 3000 6500 3025
Wire Wire Line
	6500 3100 6500 3125
Wire Wire Line
	6500 3200 6500 3225
Wire Wire Line
	6500 3300 6500 3325
Wire Wire Line
	6500 3400 6500 3425
Wire Wire Line
	6500 3500 6500 3525
Wire Wire Line
	6500 3600 6500 3625
Wire Wire Line
	6500 3700 6500 3725
Wire Wire Line
	6500 3800 6500 3825
Wire Wire Line
	6500 3900 6500 3925
Wire Wire Line
	6500 4000 6500 4025
Wire Wire Line
	6500 4100 6500 4125
Wire Wire Line
	6500 4200 6500 4225
Wire Wire Line
	6500 4300 6500 4325
Wire Wire Line
	6500 4400 6500 4425
Wire Wire Line
	6500 4500 6500 4525
Wire Wire Line
	6500 4600 6500 4625
Wire Wire Line
	6500 4700 6500 4725
Wire Wire Line
	6500 4800 6500 4825
Wire Wire Line
	5600 2425 6500 2425
Wire Wire Line
	5600 2525 6500 2525
Wire Wire Line
	5600 2625 6500 2625
Wire Wire Line
	5600 2725 6500 2725
Wire Wire Line
	5600 2825 6500 2825
Wire Wire Line
	5600 2925 6500 2925
Wire Wire Line
	5600 3025 6500 3025
Wire Wire Line
	5600 3125 6500 3125
Wire Wire Line
	5600 3225 6500 3225
Wire Wire Line
	5600 3325 6500 3325
Wire Wire Line
	5600 3425 6500 3425
Wire Wire Line
	5600 3525 6500 3525
Wire Wire Line
	5600 3625 6500 3625
Wire Wire Line
	5600 3725 6500 3725
Wire Wire Line
	5600 3825 6500 3825
Wire Wire Line
	5600 3925 6500 3925
Wire Wire Line
	5600 4025 6500 4025
Wire Wire Line
	5600 4125 6500 4125
Wire Wire Line
	5600 4225 6500 4225
Wire Wire Line
	5600 4325 6500 4325
Wire Wire Line
	5600 4425 6500 4425
Wire Wire Line
	5600 4525 6500 4525
Wire Wire Line
	5600 4625 6500 4625
Wire Wire Line
	5600 4725 6500 4725
Wire Wire Line
	5600 4825 6500 4825
Wire Wire Line
	5100 2475 6000 2475
Wire Wire Line
	6000 2575 5100 2575
Wire Wire Line
	6000 2675 5100 2675
Wire Wire Line
	6000 2775 5100 2775
Wire Wire Line
	6000 2875 5100 2875
Wire Wire Line
	6000 2975 5100 2975
Wire Wire Line
	6000 3075 5100 3075
Wire Wire Line
	6000 3175 5100 3175
Wire Wire Line
	6000 3275 5100 3275
Wire Wire Line
	6000 3375 5100 3375
Wire Wire Line
	6000 3475 5100 3475
Wire Wire Line
	6000 3575 5100 3575
Wire Wire Line
	6000 3675 5100 3675
Wire Wire Line
	6000 3775 5100 3775
Wire Wire Line
	6000 3875 5100 3875
Wire Wire Line
	6000 3975 5100 3975
Wire Wire Line
	6000 4075 5100 4075
Wire Wire Line
	6000 4175 5100 4175
Wire Wire Line
	6000 4275 5100 4275
Wire Wire Line
	6000 4375 5100 4375
Wire Wire Line
	6000 4475 5100 4475
Wire Wire Line
	6000 4575 5100 4575
Wire Wire Line
	6000 4675 5100 4675
Wire Wire Line
	6000 4775 5100 4775
$EndSCHEMATC
