%!PS-Adobe-3.0
%%Creator: PCBNEW
%%CreationDate: Wed Jun 26 03:34:53 2019
%%Title: /home/kkrizka/Dropbox/HEP/ITkStrips/feedthroughstar/gerbers/feedthroughstar-PTH-drl_map.ps
%%Pages: 1
%%PageOrder: Ascend
%%BoundingBox: 0 0 596 842
%%DocumentMedia: A4 595 842 0 () ()
%%Orientation: Landscape
%%EndComments
%%BeginProlog
/line { newpath moveto lineto stroke } bind def
/cir0 { newpath 0 360 arc stroke } bind def
/cir1 { newpath 0 360 arc gsave fill grestore stroke } bind def
/cir2 { newpath 0 360 arc gsave fill grestore stroke } bind def
/arc0 { newpath arc stroke } bind def
/arc1 { newpath 4 index 4 index moveto arc closepath gsave fill
    grestore stroke } bind def
/arc2 { newpath 4 index 4 index moveto arc closepath gsave fill
    grestore stroke } bind def
/poly0 { stroke } bind def
/poly1 { closepath gsave fill grestore stroke } bind def
/poly2 { closepath gsave fill grestore stroke } bind def
/rect0 { rectstroke } bind def
/rect1 { rectfill } bind def
/rect2 { rectfill } bind def
/linemode0 { 0 setlinecap 0 setlinejoin 0 setlinewidth } bind def
/linemode1 { 1 setlinecap 1 setlinejoin } bind def
/dashedline { [200] 100 setdash } bind def
/solidline { [] 0 setdash } bind def
/phantomshow { moveto
    /KicadFont findfont 0.000001 scalefont setfont
    show } bind def
/textshow { gsave
    findfont exch scalefont setfont concat 1 scale 0 0 moveto show
    } bind def
/reencodefont {
  findfont dup length dict begin
  { 1 index /FID ne
    { def }
    { pop pop } ifelse
  } forall
  /Encoding ISOLatin1Encoding def
  currentdict
  end } bind def
/KicadFont /Helvetica reencodefont definefont pop
/KicadFont-Bold /Helvetica-Bold reencodefont definefont pop
/KicadFont-Oblique /Helvetica-Oblique reencodefont definefont pop
/KicadFont-BoldOblique /Helvetica-BoldOblique reencodefont definefont pop
%%EndProlog
%%Page: 1 1
%%BeginPageSetup
gsave
0.0072 0.0072 scale
linemode1
82680 0 translate 90 rotate
58.8586 setlinewidth
%%EndPageSetup
0 0 0 setrgbcolor
23.1727 setlinewidth
newpath
37609.6 37020.6 moveto
37609.6 78731.4 lineto
stroke
0 0 0 setrgbcolor
newpath
79320.4 37020.6 moveto
37609.6 37020.6 lineto
stroke
0 0 0 setrgbcolor
newpath
79320.4 78731.4 moveto
79320.4 37020.6 lineto
stroke
0 0 0 setrgbcolor
newpath
37609.6 78731.4 moveto
79320.4 78731.4 lineto
stroke
78.7398 setlinewidth
newpath
51298.1 64880.2 moveto
51474.7 64703.6 lineto
stroke
newpath
51474.7 64880.2 moveto
51298.1 64703.6 lineto
stroke
newpath
51298.1 64291.6 moveto
51474.7 64115 lineto
stroke
newpath
51474.7 64291.6 moveto
51298.1 64115 lineto
stroke
newpath
51298.1 63703 moveto
51474.7 63526.4 lineto
stroke
newpath
51474.7 63703 moveto
51298.1 63526.4 lineto
stroke
newpath
51298.1 63114.4 moveto
51474.7 62937.8 lineto
stroke
newpath
51474.7 63114.4 moveto
51298.1 62937.8 lineto
stroke
newpath
51298.1 62525.8 moveto
51474.7 62349.3 lineto
stroke
newpath
51474.7 62525.8 moveto
51298.1 62349.3 lineto
stroke
newpath
51298.1 61937.2 moveto
51474.7 61760.7 lineto
stroke
newpath
51474.7 61937.2 moveto
51298.1 61760.7 lineto
stroke
newpath
51298.1 61348.7 moveto
51474.7 61172.1 lineto
stroke
newpath
51474.7 61348.7 moveto
51298.1 61172.1 lineto
stroke
newpath
51298.1 60760.1 moveto
51474.7 60583.5 lineto
stroke
newpath
51474.7 60760.1 moveto
51298.1 60583.5 lineto
stroke
newpath
51298.1 60171.5 moveto
51474.7 59994.9 lineto
stroke
newpath
51474.7 60171.5 moveto
51298.1 59994.9 lineto
stroke
newpath
51298.1 59582.9 moveto
51474.7 59406.3 lineto
stroke
newpath
51474.7 59582.9 moveto
51298.1 59406.3 lineto
stroke
newpath
51298.1 58994.3 moveto
51474.7 58817.7 lineto
stroke
newpath
51474.7 58994.3 moveto
51298.1 58817.7 lineto
stroke
newpath
51298.1 58405.7 moveto
51474.7 58229.2 lineto
stroke
newpath
51474.7 58405.7 moveto
51298.1 58229.2 lineto
stroke
newpath
51298.1 57817.1 moveto
51474.7 57640.6 lineto
stroke
newpath
51474.7 57817.1 moveto
51298.1 57640.6 lineto
stroke
newpath
51298.1 57228.6 moveto
51474.7 57052 lineto
stroke
newpath
51474.7 57228.6 moveto
51298.1 57052 lineto
stroke
newpath
51298.1 56640 moveto
51474.7 56463.4 lineto
stroke
newpath
51474.7 56640 moveto
51298.1 56463.4 lineto
stroke
newpath
51298.1 56051.4 moveto
51474.7 55874.8 lineto
stroke
newpath
51474.7 56051.4 moveto
51298.1 55874.8 lineto
stroke
newpath
51298.1 55462.8 moveto
51474.7 55286.2 lineto
stroke
newpath
51474.7 55462.8 moveto
51298.1 55286.2 lineto
stroke
newpath
51298.1 54874.2 moveto
51474.7 54697.6 lineto
stroke
newpath
51474.7 54874.2 moveto
51298.1 54697.6 lineto
stroke
newpath
51298.1 54285.6 moveto
51474.7 54109.1 lineto
stroke
newpath
51474.7 54285.6 moveto
51298.1 54109.1 lineto
stroke
newpath
51298.1 53697 moveto
51474.7 53520.5 lineto
stroke
newpath
51474.7 53697 moveto
51298.1 53520.5 lineto
stroke
newpath
51298.1 53108.5 moveto
51474.7 52931.9 lineto
stroke
newpath
51474.7 53108.5 moveto
51298.1 52931.9 lineto
stroke
newpath
51298.1 52519.9 moveto
51474.7 52343.3 lineto
stroke
newpath
51474.7 52519.9 moveto
51298.1 52343.3 lineto
stroke
newpath
51298.1 51931.3 moveto
51474.7 51754.7 lineto
stroke
newpath
51474.7 51931.3 moveto
51298.1 51754.7 lineto
stroke
newpath
51298.1 51342.7 moveto
51474.7 51166.1 lineto
stroke
newpath
51474.7 51342.7 moveto
51298.1 51166.1 lineto
stroke
newpath
51298.1 50754.1 moveto
51474.7 50577.5 lineto
stroke
newpath
51474.7 50754.1 moveto
51298.1 50577.5 lineto
stroke
newpath
51551.7 65174.5 moveto
51728.3 64997.9 lineto
stroke
newpath
51728.3 65174.5 moveto
51551.7 64997.9 lineto
stroke
newpath
51551.7 64585.9 moveto
51728.3 64409.3 lineto
stroke
newpath
51728.3 64585.9 moveto
51551.7 64409.3 lineto
stroke
newpath
51551.7 63997.3 moveto
51728.3 63820.7 lineto
stroke
newpath
51728.3 63997.3 moveto
51551.7 63820.7 lineto
stroke
newpath
51551.7 63408.7 moveto
51728.3 63232.1 lineto
stroke
newpath
51728.3 63408.7 moveto
51551.7 63232.1 lineto
stroke
newpath
51551.7 62820.1 moveto
51728.3 62643.5 lineto
stroke
newpath
51728.3 62820.1 moveto
51551.7 62643.5 lineto
stroke
newpath
51551.7 62231.5 moveto
51728.3 62055 lineto
stroke
newpath
51728.3 62231.5 moveto
51551.7 62055 lineto
stroke
newpath
51551.7 61642.9 moveto
51728.3 61466.4 lineto
stroke
newpath
51728.3 61642.9 moveto
51551.7 61466.4 lineto
stroke
newpath
51551.7 61054.4 moveto
51728.3 60877.8 lineto
stroke
newpath
51728.3 61054.4 moveto
51551.7 60877.8 lineto
stroke
newpath
51551.7 60465.8 moveto
51728.3 60289.2 lineto
stroke
newpath
51728.3 60465.8 moveto
51551.7 60289.2 lineto
stroke
newpath
51551.7 59877.2 moveto
51728.3 59700.6 lineto
stroke
newpath
51728.3 59877.2 moveto
51551.7 59700.6 lineto
stroke
newpath
51551.7 59288.6 moveto
51728.3 59112 lineto
stroke
newpath
51728.3 59288.6 moveto
51551.7 59112 lineto
stroke
newpath
51551.7 58700 moveto
51728.3 58523.4 lineto
stroke
newpath
51728.3 58700 moveto
51551.7 58523.4 lineto
stroke
newpath
51551.7 58111.4 moveto
51728.3 57934.9 lineto
stroke
newpath
51728.3 58111.4 moveto
51551.7 57934.9 lineto
stroke
newpath
51551.7 57522.8 moveto
51728.3 57346.3 lineto
stroke
newpath
51728.3 57522.8 moveto
51551.7 57346.3 lineto
stroke
newpath
51551.7 56934.3 moveto
51728.3 56757.7 lineto
stroke
newpath
51728.3 56934.3 moveto
51551.7 56757.7 lineto
stroke
newpath
51551.7 56345.7 moveto
51728.3 56169.1 lineto
stroke
newpath
51728.3 56345.7 moveto
51551.7 56169.1 lineto
stroke
newpath
51551.7 55757.1 moveto
51728.3 55580.5 lineto
stroke
newpath
51728.3 55757.1 moveto
51551.7 55580.5 lineto
stroke
newpath
51551.7 55168.5 moveto
51728.3 54991.9 lineto
stroke
newpath
51728.3 55168.5 moveto
51551.7 54991.9 lineto
stroke
newpath
51551.7 54579.9 moveto
51728.3 54403.3 lineto
stroke
newpath
51728.3 54579.9 moveto
51551.7 54403.3 lineto
stroke
newpath
51551.7 53991.3 moveto
51728.3 53814.8 lineto
stroke
newpath
51728.3 53991.3 moveto
51551.7 53814.8 lineto
stroke
newpath
51551.7 53402.7 moveto
51728.3 53226.2 lineto
stroke
newpath
51728.3 53402.7 moveto
51551.7 53226.2 lineto
stroke
newpath
51551.7 52814.2 moveto
51728.3 52637.6 lineto
stroke
newpath
51728.3 52814.2 moveto
51551.7 52637.6 lineto
stroke
newpath
51551.7 52225.6 moveto
51728.3 52049 lineto
stroke
newpath
51728.3 52225.6 moveto
51551.7 52049 lineto
stroke
newpath
51551.7 51637 moveto
51728.3 51460.4 lineto
stroke
newpath
51728.3 51637 moveto
51551.7 51460.4 lineto
stroke
newpath
51551.7 51048.4 moveto
51728.3 50871.8 lineto
stroke
newpath
51728.3 51048.4 moveto
51551.7 50871.8 lineto
stroke
newpath
58249.9 64880.2 moveto
58426.5 64703.6 lineto
stroke
newpath
58426.5 64880.2 moveto
58249.9 64703.6 lineto
stroke
newpath
58249.9 64291.6 moveto
58426.5 64115 lineto
stroke
newpath
58426.5 64291.6 moveto
58249.9 64115 lineto
stroke
newpath
58249.9 63703 moveto
58426.5 63526.4 lineto
stroke
newpath
58426.5 63703 moveto
58249.9 63526.4 lineto
stroke
newpath
58249.9 63114.4 moveto
58426.5 62937.8 lineto
stroke
newpath
58426.5 63114.4 moveto
58249.9 62937.8 lineto
stroke
newpath
58249.9 62525.8 moveto
58426.5 62349.3 lineto
stroke
newpath
58426.5 62525.8 moveto
58249.9 62349.3 lineto
stroke
newpath
58249.9 61937.2 moveto
58426.5 61760.7 lineto
stroke
newpath
58426.5 61937.2 moveto
58249.9 61760.7 lineto
stroke
newpath
58249.9 61348.7 moveto
58426.5 61172.1 lineto
stroke
newpath
58426.5 61348.7 moveto
58249.9 61172.1 lineto
stroke
newpath
58249.9 60760.1 moveto
58426.5 60583.5 lineto
stroke
newpath
58426.5 60760.1 moveto
58249.9 60583.5 lineto
stroke
newpath
58249.9 60171.5 moveto
58426.5 59994.9 lineto
stroke
newpath
58426.5 60171.5 moveto
58249.9 59994.9 lineto
stroke
newpath
58249.9 59582.9 moveto
58426.5 59406.3 lineto
stroke
newpath
58426.5 59582.9 moveto
58249.9 59406.3 lineto
stroke
newpath
58249.9 58994.3 moveto
58426.5 58817.7 lineto
stroke
newpath
58426.5 58994.3 moveto
58249.9 58817.7 lineto
stroke
newpath
58249.9 58405.7 moveto
58426.5 58229.2 lineto
stroke
newpath
58426.5 58405.7 moveto
58249.9 58229.2 lineto
stroke
newpath
58249.9 57817.1 moveto
58426.5 57640.6 lineto
stroke
newpath
58426.5 57817.1 moveto
58249.9 57640.6 lineto
stroke
newpath
58249.9 57228.6 moveto
58426.5 57052 lineto
stroke
newpath
58426.5 57228.6 moveto
58249.9 57052 lineto
stroke
newpath
58249.9 56640 moveto
58426.5 56463.4 lineto
stroke
newpath
58426.5 56640 moveto
58249.9 56463.4 lineto
stroke
newpath
58249.9 56051.4 moveto
58426.5 55874.8 lineto
stroke
newpath
58426.5 56051.4 moveto
58249.9 55874.8 lineto
stroke
newpath
58249.9 55462.8 moveto
58426.5 55286.2 lineto
stroke
newpath
58426.5 55462.8 moveto
58249.9 55286.2 lineto
stroke
newpath
58249.9 54874.2 moveto
58426.5 54697.6 lineto
stroke
newpath
58426.5 54874.2 moveto
58249.9 54697.6 lineto
stroke
newpath
58249.9 54285.6 moveto
58426.5 54109.1 lineto
stroke
newpath
58426.5 54285.6 moveto
58249.9 54109.1 lineto
stroke
newpath
58249.9 53697 moveto
58426.5 53520.5 lineto
stroke
newpath
58426.5 53697 moveto
58249.9 53520.5 lineto
stroke
newpath
58249.9 53108.5 moveto
58426.5 52931.9 lineto
stroke
newpath
58426.5 53108.5 moveto
58249.9 52931.9 lineto
stroke
newpath
58249.9 52519.9 moveto
58426.5 52343.3 lineto
stroke
newpath
58426.5 52519.9 moveto
58249.9 52343.3 lineto
stroke
newpath
58249.9 51931.3 moveto
58426.5 51754.7 lineto
stroke
newpath
58426.5 51931.3 moveto
58249.9 51754.7 lineto
stroke
newpath
58249.9 51342.7 moveto
58426.5 51166.1 lineto
stroke
newpath
58426.5 51342.7 moveto
58249.9 51166.1 lineto
stroke
newpath
58249.9 50754.1 moveto
58426.5 50577.5 lineto
stroke
newpath
58426.5 50754.1 moveto
58249.9 50577.5 lineto
stroke
newpath
58503.5 65174.5 moveto
58680.1 64997.9 lineto
stroke
newpath
58680.1 65174.5 moveto
58503.5 64997.9 lineto
stroke
newpath
58503.5 64585.9 moveto
58680.1 64409.3 lineto
stroke
newpath
58680.1 64585.9 moveto
58503.5 64409.3 lineto
stroke
newpath
58503.5 63997.3 moveto
58680.1 63820.7 lineto
stroke
newpath
58680.1 63997.3 moveto
58503.5 63820.7 lineto
stroke
newpath
58503.5 63408.7 moveto
58680.1 63232.1 lineto
stroke
newpath
58680.1 63408.7 moveto
58503.5 63232.1 lineto
stroke
newpath
58503.5 62820.1 moveto
58680.1 62643.5 lineto
stroke
newpath
58680.1 62820.1 moveto
58503.5 62643.5 lineto
stroke
newpath
58503.5 62231.5 moveto
58680.1 62055 lineto
stroke
newpath
58680.1 62231.5 moveto
58503.5 62055 lineto
stroke
newpath
58503.5 61642.9 moveto
58680.1 61466.4 lineto
stroke
newpath
58680.1 61642.9 moveto
58503.5 61466.4 lineto
stroke
newpath
58503.5 61054.4 moveto
58680.1 60877.8 lineto
stroke
newpath
58680.1 61054.4 moveto
58503.5 60877.8 lineto
stroke
newpath
58503.5 60465.8 moveto
58680.1 60289.2 lineto
stroke
newpath
58680.1 60465.8 moveto
58503.5 60289.2 lineto
stroke
newpath
58503.5 59877.2 moveto
58680.1 59700.6 lineto
stroke
newpath
58680.1 59877.2 moveto
58503.5 59700.6 lineto
stroke
newpath
58503.5 59288.6 moveto
58680.1 59112 lineto
stroke
newpath
58680.1 59288.6 moveto
58503.5 59112 lineto
stroke
newpath
58503.5 58700 moveto
58680.1 58523.4 lineto
stroke
newpath
58680.1 58700 moveto
58503.5 58523.4 lineto
stroke
newpath
58503.5 58111.4 moveto
58680.1 57934.9 lineto
stroke
newpath
58680.1 58111.4 moveto
58503.5 57934.9 lineto
stroke
newpath
58503.5 57522.8 moveto
58680.1 57346.3 lineto
stroke
newpath
58680.1 57522.8 moveto
58503.5 57346.3 lineto
stroke
newpath
58503.5 56934.3 moveto
58680.1 56757.7 lineto
stroke
newpath
58680.1 56934.3 moveto
58503.5 56757.7 lineto
stroke
newpath
58503.5 56345.7 moveto
58680.1 56169.1 lineto
stroke
newpath
58680.1 56345.7 moveto
58503.5 56169.1 lineto
stroke
newpath
58503.5 55757.1 moveto
58680.1 55580.5 lineto
stroke
newpath
58680.1 55757.1 moveto
58503.5 55580.5 lineto
stroke
newpath
58503.5 55168.5 moveto
58680.1 54991.9 lineto
stroke
newpath
58680.1 55168.5 moveto
58503.5 54991.9 lineto
stroke
newpath
58503.5 54579.9 moveto
58680.1 54403.3 lineto
stroke
newpath
58680.1 54579.9 moveto
58503.5 54403.3 lineto
stroke
newpath
58503.5 53991.3 moveto
58680.1 53814.8 lineto
stroke
newpath
58680.1 53991.3 moveto
58503.5 53814.8 lineto
stroke
newpath
58503.5 53402.7 moveto
58680.1 53226.2 lineto
stroke
newpath
58680.1 53402.7 moveto
58503.5 53226.2 lineto
stroke
newpath
58503.5 52814.2 moveto
58680.1 52637.6 lineto
stroke
newpath
58680.1 52814.2 moveto
58503.5 52637.6 lineto
stroke
newpath
58503.5 52225.6 moveto
58680.1 52049 lineto
stroke
newpath
58680.1 52225.6 moveto
58503.5 52049 lineto
stroke
newpath
58503.5 51637 moveto
58680.1 51460.4 lineto
stroke
newpath
58680.1 51637 moveto
58503.5 51460.4 lineto
stroke
newpath
58503.5 51048.4 moveto
58680.1 50871.8 lineto
stroke
newpath
58680.1 51048.4 moveto
58503.5 50871.8 lineto
stroke
newpath
65201.7 64880.2 moveto
65378.3 64703.6 lineto
stroke
newpath
65378.3 64880.2 moveto
65201.7 64703.6 lineto
stroke
newpath
65201.7 64291.6 moveto
65378.3 64115 lineto
stroke
newpath
65378.3 64291.6 moveto
65201.7 64115 lineto
stroke
newpath
65201.7 63703 moveto
65378.3 63526.4 lineto
stroke
newpath
65378.3 63703 moveto
65201.7 63526.4 lineto
stroke
newpath
65201.7 63114.4 moveto
65378.3 62937.8 lineto
stroke
newpath
65378.3 63114.4 moveto
65201.7 62937.8 lineto
stroke
newpath
65201.7 62525.8 moveto
65378.3 62349.3 lineto
stroke
newpath
65378.3 62525.8 moveto
65201.7 62349.3 lineto
stroke
newpath
65201.7 61937.2 moveto
65378.3 61760.7 lineto
stroke
newpath
65378.3 61937.2 moveto
65201.7 61760.7 lineto
stroke
newpath
65201.7 61348.7 moveto
65378.3 61172.1 lineto
stroke
newpath
65378.3 61348.7 moveto
65201.7 61172.1 lineto
stroke
newpath
65201.7 60760.1 moveto
65378.3 60583.5 lineto
stroke
newpath
65378.3 60760.1 moveto
65201.7 60583.5 lineto
stroke
newpath
65201.7 60171.5 moveto
65378.3 59994.9 lineto
stroke
newpath
65378.3 60171.5 moveto
65201.7 59994.9 lineto
stroke
newpath
65201.7 59582.9 moveto
65378.3 59406.3 lineto
stroke
newpath
65378.3 59582.9 moveto
65201.7 59406.3 lineto
stroke
newpath
65201.7 58994.3 moveto
65378.3 58817.7 lineto
stroke
newpath
65378.3 58994.3 moveto
65201.7 58817.7 lineto
stroke
newpath
65201.7 58405.7 moveto
65378.3 58229.2 lineto
stroke
newpath
65378.3 58405.7 moveto
65201.7 58229.2 lineto
stroke
newpath
65201.7 57817.1 moveto
65378.3 57640.6 lineto
stroke
newpath
65378.3 57817.1 moveto
65201.7 57640.6 lineto
stroke
newpath
65201.7 57228.6 moveto
65378.3 57052 lineto
stroke
newpath
65378.3 57228.6 moveto
65201.7 57052 lineto
stroke
newpath
65201.7 56640 moveto
65378.3 56463.4 lineto
stroke
newpath
65378.3 56640 moveto
65201.7 56463.4 lineto
stroke
newpath
65201.7 56051.4 moveto
65378.3 55874.8 lineto
stroke
newpath
65378.3 56051.4 moveto
65201.7 55874.8 lineto
stroke
newpath
65201.7 55462.8 moveto
65378.3 55286.2 lineto
stroke
newpath
65378.3 55462.8 moveto
65201.7 55286.2 lineto
stroke
newpath
65201.7 54874.2 moveto
65378.3 54697.6 lineto
stroke
newpath
65378.3 54874.2 moveto
65201.7 54697.6 lineto
stroke
newpath
65201.7 54285.6 moveto
65378.3 54109.1 lineto
stroke
newpath
65378.3 54285.6 moveto
65201.7 54109.1 lineto
stroke
newpath
65201.7 53697 moveto
65378.3 53520.5 lineto
stroke
newpath
65378.3 53697 moveto
65201.7 53520.5 lineto
stroke
newpath
65201.7 53108.5 moveto
65378.3 52931.9 lineto
stroke
newpath
65378.3 53108.5 moveto
65201.7 52931.9 lineto
stroke
newpath
65201.7 52519.9 moveto
65378.3 52343.3 lineto
stroke
newpath
65378.3 52519.9 moveto
65201.7 52343.3 lineto
stroke
newpath
65201.7 51931.3 moveto
65378.3 51754.7 lineto
stroke
newpath
65378.3 51931.3 moveto
65201.7 51754.7 lineto
stroke
newpath
65201.7 51342.7 moveto
65378.3 51166.1 lineto
stroke
newpath
65378.3 51342.7 moveto
65201.7 51166.1 lineto
stroke
newpath
65201.7 50754.1 moveto
65378.3 50577.5 lineto
stroke
newpath
65378.3 50754.1 moveto
65201.7 50577.5 lineto
stroke
newpath
65455.3 65174.5 moveto
65631.9 64997.9 lineto
stroke
newpath
65631.9 65174.5 moveto
65455.3 64997.9 lineto
stroke
newpath
65455.3 64585.9 moveto
65631.9 64409.3 lineto
stroke
newpath
65631.9 64585.9 moveto
65455.3 64409.3 lineto
stroke
newpath
65455.3 63997.3 moveto
65631.9 63820.7 lineto
stroke
newpath
65631.9 63997.3 moveto
65455.3 63820.7 lineto
stroke
newpath
65455.3 63408.7 moveto
65631.9 63232.1 lineto
stroke
newpath
65631.9 63408.7 moveto
65455.3 63232.1 lineto
stroke
newpath
65455.3 62820.1 moveto
65631.9 62643.5 lineto
stroke
newpath
65631.9 62820.1 moveto
65455.3 62643.5 lineto
stroke
newpath
65455.3 62231.5 moveto
65631.9 62055 lineto
stroke
newpath
65631.9 62231.5 moveto
65455.3 62055 lineto
stroke
newpath
65455.3 61642.9 moveto
65631.9 61466.4 lineto
stroke
newpath
65631.9 61642.9 moveto
65455.3 61466.4 lineto
stroke
newpath
65455.3 61054.4 moveto
65631.9 60877.8 lineto
stroke
newpath
65631.9 61054.4 moveto
65455.3 60877.8 lineto
stroke
newpath
65455.3 60465.8 moveto
65631.9 60289.2 lineto
stroke
newpath
65631.9 60465.8 moveto
65455.3 60289.2 lineto
stroke
newpath
65455.3 59877.2 moveto
65631.9 59700.6 lineto
stroke
newpath
65631.9 59877.2 moveto
65455.3 59700.6 lineto
stroke
newpath
65455.3 59288.6 moveto
65631.9 59112 lineto
stroke
newpath
65631.9 59288.6 moveto
65455.3 59112 lineto
stroke
newpath
65455.3 58700 moveto
65631.9 58523.4 lineto
stroke
newpath
65631.9 58700 moveto
65455.3 58523.4 lineto
stroke
newpath
65455.3 58111.4 moveto
65631.9 57934.9 lineto
stroke
newpath
65631.9 58111.4 moveto
65455.3 57934.9 lineto
stroke
newpath
65455.3 57522.8 moveto
65631.9 57346.3 lineto
stroke
newpath
65631.9 57522.8 moveto
65455.3 57346.3 lineto
stroke
newpath
65455.3 56934.3 moveto
65631.9 56757.7 lineto
stroke
newpath
65631.9 56934.3 moveto
65455.3 56757.7 lineto
stroke
newpath
65455.3 56345.7 moveto
65631.9 56169.1 lineto
stroke
newpath
65631.9 56345.7 moveto
65455.3 56169.1 lineto
stroke
newpath
65455.3 55757.1 moveto
65631.9 55580.5 lineto
stroke
newpath
65631.9 55757.1 moveto
65455.3 55580.5 lineto
stroke
newpath
65455.3 55168.5 moveto
65631.9 54991.9 lineto
stroke
newpath
65631.9 55168.5 moveto
65455.3 54991.9 lineto
stroke
newpath
65455.3 54579.9 moveto
65631.9 54403.3 lineto
stroke
newpath
65631.9 54579.9 moveto
65455.3 54403.3 lineto
stroke
newpath
65455.3 53991.3 moveto
65631.9 53814.8 lineto
stroke
newpath
65631.9 53991.3 moveto
65455.3 53814.8 lineto
stroke
newpath
65455.3 53402.7 moveto
65631.9 53226.2 lineto
stroke
newpath
65631.9 53402.7 moveto
65455.3 53226.2 lineto
stroke
newpath
65455.3 52814.2 moveto
65631.9 52637.6 lineto
stroke
newpath
65631.9 52814.2 moveto
65455.3 52637.6 lineto
stroke
newpath
65455.3 52225.6 moveto
65631.9 52049 lineto
stroke
newpath
65631.9 52225.6 moveto
65455.3 52049 lineto
stroke
newpath
65455.3 51637 moveto
65631.9 51460.4 lineto
stroke
newpath
65631.9 51637 moveto
65455.3 51460.4 lineto
stroke
newpath
65455.3 51048.4 moveto
65631.9 50871.8 lineto
stroke
newpath
65631.9 51048.4 moveto
65455.3 50871.8 lineto
stroke
118.11 setlinewidth
0 0 0 setrgbcolor
0 0 0 setrgbcolor
newpath
38725.7 35175.5 moveto
38725.7 36356.6 lineto
39006.9 36356.6 lineto
39175.6 36300.3 lineto
39288.1 36187.9 lineto
39344.4 36075.4 lineto
39400.6 35850.4 lineto
39400.6 35681.7 lineto
39344.4 35456.7 lineto
39288.1 35344.2 lineto
39175.6 35231.7 lineto
39006.9 35175.5 lineto
38725.7 35175.5 lineto
stroke
newpath
39906.8 35175.5 moveto
39906.8 35962.9 lineto
stroke
newpath
39906.8 35737.9 moveto
39963 35850.4 lineto
40019.3 35906.6 lineto
40131.8 35962.9 lineto
40244.2 35962.9 lineto
stroke
newpath
40637.9 35175.5 moveto
40637.9 35962.9 lineto
stroke
newpath
40637.9 36356.6 moveto
40581.7 36300.3 lineto
40637.9 36244.1 lineto
40694.2 36300.3 lineto
40637.9 36356.6 lineto
40637.9 36244.1 lineto
stroke
newpath
41369.1 35175.5 moveto
41256.6 35231.7 lineto
41200.4 35344.2 lineto
41200.4 36356.6 lineto
stroke
newpath
41987.8 35175.5 moveto
41875.3 35231.7 lineto
41819 35344.2 lineto
41819 36356.6 lineto
stroke
newpath
43337.6 35175.5 moveto
43337.6 36356.6 lineto
43731.3 35512.9 lineto
44125 36356.6 lineto
44125 35175.5 lineto
stroke
newpath
45193.6 35175.5 moveto
45193.6 35794.2 lineto
45137.4 35906.6 lineto
45024.9 35962.9 lineto
44799.9 35962.9 lineto
44687.4 35906.6 lineto
stroke
newpath
45193.6 35231.7 moveto
45081.1 35175.5 lineto
44799.9 35175.5 lineto
44687.4 35231.7 lineto
44631.2 35344.2 lineto
44631.2 35456.7 lineto
44687.4 35569.2 lineto
44799.9 35625.4 lineto
45081.1 35625.4 lineto
45193.6 35681.7 lineto
stroke
newpath
45756 35962.9 moveto
45756 34781.8 lineto
stroke
newpath
45756 35906.6 moveto
45868.5 35962.9 lineto
46093.5 35962.9 lineto
46206 35906.6 lineto
46262.2 35850.4 lineto
46318.5 35737.9 lineto
46318.5 35400.5 lineto
46262.2 35288 lineto
46206 35231.7 lineto
46093.5 35175.5 lineto
45868.5 35175.5 lineto
45756 35231.7 lineto
stroke
newpath
46824.7 35288 moveto
46880.9 35231.7 lineto
46824.7 35175.5 lineto
46768.4 35231.7 lineto
46824.7 35288 lineto
46824.7 35175.5 lineto
stroke
newpath
46824.7 35906.6 moveto
46880.9 35850.4 lineto
46824.7 35794.2 lineto
46768.4 35850.4 lineto
46824.7 35906.6 lineto
46824.7 35794.2 lineto
stroke
newpath
37421.4 33317.8 moveto
37598 33141.2 lineto
stroke
newpath
37598 33317.8 moveto
37421.4 33141.2 lineto
stroke
0 0 0 setrgbcolor
0 0 0 setrgbcolor
newpath
38950.7 33876.3 moveto
39063.1 33876.3 lineto
39175.6 33820 lineto
39231.9 33763.8 lineto
39288.1 33651.3 lineto
39344.4 33426.3 lineto
39344.4 33145.1 lineto
39288.1 32920.1 lineto
39231.9 32807.7 lineto
39175.6 32751.4 lineto
39063.1 32695.2 lineto
38950.7 32695.2 lineto
38838.2 32751.4 lineto
38781.9 32807.7 lineto
38725.7 32920.1 lineto
38669.4 33145.1 lineto
38669.4 33426.3 lineto
38725.7 33651.3 lineto
38781.9 33763.8 lineto
38838.2 33820 lineto
38950.7 33876.3 lineto
stroke
newpath
39850.5 32807.7 moveto
39906.8 32751.4 lineto
39850.5 32695.2 lineto
39794.3 32751.4 lineto
39850.5 32807.7 lineto
39850.5 32695.2 lineto
stroke
newpath
40300.5 33876.3 moveto
41031.6 33876.3 lineto
40637.9 33426.3 lineto
40806.7 33426.3 lineto
40919.2 33370.1 lineto
40975.4 33313.8 lineto
41031.6 33201.4 lineto
41031.6 32920.1 lineto
40975.4 32807.7 lineto
40919.2 32751.4 lineto
40806.7 32695.2 lineto
40469.2 32695.2 lineto
40356.7 32751.4 lineto
40300.5 32807.7 lineto
stroke
newpath
41706.6 33370.1 moveto
41594.1 33426.3 lineto
41537.8 33482.6 lineto
41481.6 33595.1 lineto
41481.6 33651.3 lineto
41537.8 33763.8 lineto
41594.1 33820 lineto
41706.6 33876.3 lineto
41931.5 33876.3 lineto
42044 33820 lineto
42100.3 33763.8 lineto
42156.5 33651.3 lineto
42156.5 33595.1 lineto
42100.3 33482.6 lineto
42044 33426.3 lineto
41931.5 33370.1 lineto
41706.6 33370.1 lineto
41594.1 33313.8 lineto
41537.8 33257.6 lineto
41481.6 33145.1 lineto
41481.6 32920.1 lineto
41537.8 32807.7 lineto
41594.1 32751.4 lineto
41706.6 32695.2 lineto
41931.5 32695.2 lineto
42044 32751.4 lineto
42100.3 32807.7 lineto
42156.5 32920.1 lineto
42156.5 33145.1 lineto
42100.3 33257.6 lineto
42044 33313.8 lineto
41931.5 33370.1 lineto
stroke
newpath
42662.7 32695.2 moveto
42662.7 33482.6 lineto
stroke
newpath
42662.7 33370.1 moveto
42718.9 33426.3 lineto
42831.4 33482.6 lineto
43000.1 33482.6 lineto
43112.6 33426.3 lineto
43168.9 33313.8 lineto
43168.9 32695.2 lineto
stroke
newpath
43168.9 33313.8 moveto
43225.1 33426.3 lineto
43337.6 33482.6 lineto
43506.3 33482.6 lineto
43618.8 33426.3 lineto
43675.1 33313.8 lineto
43675.1 32695.2 lineto
stroke
newpath
44237.5 32695.2 moveto
44237.5 33482.6 lineto
stroke
newpath
44237.5 33370.1 moveto
44293.7 33426.3 lineto
44406.2 33482.6 lineto
44574.9 33482.6 lineto
44687.4 33426.3 lineto
44743.7 33313.8 lineto
44743.7 32695.2 lineto
stroke
newpath
44743.7 33313.8 moveto
44799.9 33426.3 lineto
44912.4 33482.6 lineto
45081.1 33482.6 lineto
45193.6 33426.3 lineto
45249.9 33313.8 lineto
45249.9 32695.2 lineto
stroke
newpath
47555.8 33932.5 moveto
46543.5 32414 lineto
stroke
newpath
49074.4 33876.3 moveto
49186.9 33876.3 lineto
49299.4 33820 lineto
49355.6 33763.8 lineto
49411.8 33651.3 lineto
49468.1 33426.3 lineto
49468.1 33145.1 lineto
49411.8 32920.1 lineto
49355.6 32807.7 lineto
49299.4 32751.4 lineto
49186.9 32695.2 lineto
49074.4 32695.2 lineto
48961.9 32751.4 lineto
48905.7 32807.7 lineto
48849.4 32920.1 lineto
48793.2 33145.1 lineto
48793.2 33426.3 lineto
48849.4 33651.3 lineto
48905.7 33763.8 lineto
48961.9 33820 lineto
49074.4 33876.3 lineto
stroke
newpath
49974.3 32807.7 moveto
50030.5 32751.4 lineto
49974.3 32695.2 lineto
49918 32751.4 lineto
49974.3 32807.7 lineto
49974.3 32695.2 lineto
stroke
newpath
50761.7 33876.3 moveto
50874.2 33876.3 lineto
50986.6 33820 lineto
51042.9 33763.8 lineto
51099.1 33651.3 lineto
51155.4 33426.3 lineto
51155.4 33145.1 lineto
51099.1 32920.1 lineto
51042.9 32807.7 lineto
50986.6 32751.4 lineto
50874.2 32695.2 lineto
50761.7 32695.2 lineto
50649.2 32751.4 lineto
50592.9 32807.7 lineto
50536.7 32920.1 lineto
50480.5 33145.1 lineto
50480.5 33426.3 lineto
50536.7 33651.3 lineto
50592.9 33763.8 lineto
50649.2 33820 lineto
50761.7 33876.3 lineto
stroke
newpath
52280.2 32695.2 moveto
51605.3 32695.2 lineto
stroke
newpath
51942.8 32695.2 moveto
51942.8 33876.3 lineto
51830.3 33707.5 lineto
51717.8 33595.1 lineto
51605.3 33538.8 lineto
stroke
newpath
53348.9 33876.3 moveto
52786.4 33876.3 lineto
52730.2 33313.8 lineto
52786.4 33370.1 lineto
52898.9 33426.3 lineto
53180.1 33426.3 lineto
53292.6 33370.1 lineto
53348.9 33313.8 lineto
53405.1 33201.4 lineto
53405.1 32920.1 lineto
53348.9 32807.7 lineto
53292.6 32751.4 lineto
53180.1 32695.2 lineto
52898.9 32695.2 lineto
52786.4 32751.4 lineto
52730.2 32807.7 lineto
stroke
newpath
53855 33876.3 moveto
53855 33651.3 lineto
stroke
newpath
54305 33876.3 moveto
54305 33651.3 lineto
stroke
newpath
56048.5 32245.2 moveto
55992.3 32301.5 lineto
55879.8 32470.2 lineto
55823.5 32582.7 lineto
55767.3 32751.4 lineto
55711.1 33032.6 lineto
55711.1 33257.6 lineto
55767.3 33538.8 lineto
55823.5 33707.5 lineto
55879.8 33820 lineto
55992.3 33988.8 lineto
56048.5 34045 lineto
stroke
newpath
57117.1 32695.2 moveto
56442.2 32695.2 lineto
stroke
newpath
56779.7 32695.2 moveto
56779.7 33876.3 lineto
56667.2 33707.5 lineto
56554.7 33595.1 lineto
56442.2 33538.8 lineto
stroke
newpath
58185.7 33876.3 moveto
57623.3 33876.3 lineto
57567.1 33313.8 lineto
57623.3 33370.1 lineto
57735.8 33426.3 lineto
58017 33426.3 lineto
58129.5 33370.1 lineto
58185.7 33313.8 lineto
58242 33201.4 lineto
58242 32920.1 lineto
58185.7 32807.7 lineto
58129.5 32751.4 lineto
58017 32695.2 lineto
57735.8 32695.2 lineto
57623.3 32751.4 lineto
57567.1 32807.7 lineto
stroke
newpath
58973.1 33876.3 moveto
59085.6 33876.3 lineto
59198.1 33820 lineto
59254.4 33763.8 lineto
59310.6 33651.3 lineto
59366.8 33426.3 lineto
59366.8 33145.1 lineto
59310.6 32920.1 lineto
59254.4 32807.7 lineto
59198.1 32751.4 lineto
59085.6 32695.2 lineto
58973.1 32695.2 lineto
58860.7 32751.4 lineto
58804.4 32807.7 lineto
58748.2 32920.1 lineto
58691.9 33145.1 lineto
58691.9 33426.3 lineto
58748.2 33651.3 lineto
58804.4 33763.8 lineto
58860.7 33820 lineto
58973.1 33876.3 lineto
stroke
newpath
60772.9 32695.2 moveto
60772.9 33876.3 lineto
stroke
newpath
61279.1 32695.2 moveto
61279.1 33313.8 lineto
61222.9 33426.3 lineto
61110.4 33482.6 lineto
60941.7 33482.6 lineto
60829.2 33426.3 lineto
60772.9 33370.1 lineto
stroke
newpath
62010.3 32695.2 moveto
61897.8 32751.4 lineto
61841.5 32807.7 lineto
61785.3 32920.1 lineto
61785.3 33257.6 lineto
61841.5 33370.1 lineto
61897.8 33426.3 lineto
62010.3 33482.6 lineto
62179 33482.6 lineto
62291.5 33426.3 lineto
62347.7 33370.1 lineto
62404 33257.6 lineto
62404 32920.1 lineto
62347.7 32807.7 lineto
62291.5 32751.4 lineto
62179 32695.2 lineto
62010.3 32695.2 lineto
stroke
newpath
63078.9 32695.2 moveto
62966.4 32751.4 lineto
62910.2 32863.9 lineto
62910.2 33876.3 lineto
stroke
newpath
63978.8 32751.4 moveto
63866.3 32695.2 lineto
63641.3 32695.2 lineto
63528.8 32751.4 lineto
63472.6 32863.9 lineto
63472.6 33313.8 lineto
63528.8 33426.3 lineto
63641.3 33482.6 lineto
63866.3 33482.6 lineto
63978.8 33426.3 lineto
64035 33313.8 lineto
64035 33201.4 lineto
63472.6 33088.9 lineto
stroke
newpath
64485 32751.4 moveto
64597.4 32695.2 lineto
64822.4 32695.2 lineto
64934.9 32751.4 lineto
64991.1 32863.9 lineto
64991.1 32920.1 lineto
64934.9 33032.6 lineto
64822.4 33088.9 lineto
64653.7 33088.9 lineto
64541.2 33145.1 lineto
64485 33257.6 lineto
64485 33313.8 lineto
64541.2 33426.3 lineto
64653.7 33482.6 lineto
64822.4 33482.6 lineto
64934.9 33426.3 lineto
stroke
newpath
65384.8 32245.2 moveto
65441.1 32301.5 lineto
65553.6 32470.2 lineto
65609.8 32582.7 lineto
65666.1 32751.4 lineto
65722.3 33032.6 lineto
65722.3 33257.6 lineto
65666.1 33538.8 lineto
65609.8 33707.5 lineto
65553.6 33820 lineto
65441.1 33988.8 lineto
65384.8 34045 lineto
stroke
showpage
grestore
%%EOF
